\relax 
\providecommand\hyper@newdestlabel[2]{}
\providecommand\HyperFirstAtBeginDocument{\AtBeginDocument}
\HyperFirstAtBeginDocument{\ifx\hyper@anchor\@undefined
\global\let\oldcontentsline\contentsline
\gdef\contentsline#1#2#3#4{\oldcontentsline{#1}{#2}{#3}}
\global\let\oldnewlabel\newlabel
\gdef\newlabel#1#2{\newlabelxx{#1}#2}
\gdef\newlabelxx#1#2#3#4#5#6{\oldnewlabel{#1}{{#2}{#3}}}
\AtEndDocument{\ifx\hyper@anchor\@undefined
\let\contentsline\oldcontentsline
\let\newlabel\oldnewlabel
\fi}
\fi}
\global\let\hyper@last\relax 
\gdef\HyperFirstAtBeginDocument#1{#1}
\providecommand\HyField@AuxAddToFields[1]{}
\providecommand\HyField@AuxAddToCoFields[2]{}
\providecommand\babel@aux[2]{}
\@nameuse{bbl@beforestart}
\citation{pearl2009causality}
\citation{betsy}
\citation{richardson2013singlewi}
\citation{pearl2009causality}
\citation{richardson2013singlewi}
\citation{malinsky2019pocalc}
\citation{pearl2009causality}
\babel@aux{english}{}
\@writefile{toc}{\contentsline {section}{\numberline {1}Preliminaries}{1}{section.1}\protected@file@percent }
\newlabel{sec:preliminaries}{{1}{1}{Preliminaries}{section.1}{}}
\newlabel{eq:consistency}{{1}{1}{Preliminaries}{equation.1.1}{}}
\@writefile{toc}{\contentsline {subsection}{\numberline {1.1}Causal Models of Directed Acyclic Networks}{1}{subsection.1.1}\protected@file@percent }
\newlabel{eq:dag-factorization}{{2}{1}{Causal Models of Directed Acyclic Networks}{equation.1.2}{}}
\newlabel{eq:swig-factorization}{{3}{1}{Causal Models of Directed Acyclic Networks}{equation.1.3}{}}
\citation{mohan}
\citation{finkelstein}
\citation{finkelstein}
\citation{mohan}
\@writefile{toc}{\contentsline {subsection}{\numberline {1.2}Graphical Reprsentation of Unobserved Confounding}{2}{subsection.1.2}\protected@file@percent }
\newlabel{eq:swig-marginal}{{4}{2}{Graphical Reprsentation of Unobserved Confounding}{equation.1.4}{}}
\@writefile{toc}{\contentsline {subsection}{\numberline {1.3}Graphical Representation of Missing Data and Measurement Error}{2}{subsection.1.3}\protected@file@percent }
\citation{evans}
\citation{richardson}
\citation{richardson}
\citation{richardson}
\@writefile{toc}{\contentsline {subsection}{\numberline {1.4}Single and Cross World Marginals of the Full Data Law}{3}{subsection.1.4}\protected@file@percent }
\@writefile{toc}{\contentsline {subsection}{\numberline {1.5}Fixing \& Latent Projection Operations}{3}{subsection.1.5}\protected@file@percent }
\@writefile{toc}{\contentsline {section}{\numberline {2}Constructing the Polynomial Program}{4}{section.2}\protected@file@percent }
\newlabel{sec:algorithm}{{2}{4}{Constructing the Polynomial Program}{section.2}{}}
\newlabel{eq:polynomial}{{5}{4}{}{equation.2.5}{}}
\newlabel{prop:relevant-latents}{{4}{5}{}{proposition.4}{}}
\@writefile{loa}{\contentsline {algorithm}{\numberline {1}{\ignorespaces Canonicalizing a Latent Variable DAG\relax }}{5}{algorithm.1}\protected@file@percent }
\providecommand*\caption@xref[2]{\@setref\relax\@undefined{#1}}
\newlabel{alg:canonicalization}{{1}{5}{Canonicalizing a Latent Variable DAG\relax }{algorithm.1}{}}
\@writefile{toc}{\contentsline {subsection}{\numberline {2.1}Nested Markov Polynomialization}{5}{subsection.2.1}\protected@file@percent }
\@writefile{toc}{\contentsline {subsection}{\numberline {2.2}Na\"ive Polynomialization for Conditionals}{6}{subsection.2.2}\protected@file@percent }
\@writefile{toc}{\contentsline {subsection}{\numberline {2.3}DAG Parameter Polynomialization}{6}{subsection.2.3}\protected@file@percent }
\@writefile{loa}{\contentsline {algorithm}{\numberline {2}{\ignorespaces Constructing a Polynomial Program\relax }}{7}{algorithm.2}\protected@file@percent }
\newlabel{alg:polynomial-program}{{2}{7}{Constructing a Polynomial Program\relax }{algorithm.2}{}}
\@writefile{toc}{\contentsline {subsection}{\numberline {2.4}Sharp Bounding through Polynomial Programming}{7}{subsection.2.4}\protected@file@percent }
\citation{mohan}
\citation{rohit}
\citation{tian}
\@writefile{toc}{\contentsline {section}{\numberline {3}Obstacles to Exact Identification}{8}{section.3}\protected@file@percent }
\newlabel{sec:obstacles}{{3}{8}{Obstacles to Exact Identification}{section.3}{}}
\@writefile{toc}{\contentsline {section}{\numberline {4}Examples}{9}{section.4}\protected@file@percent }
\@writefile{toc}{\contentsline {section}{\numberline {5}Conclusion}{9}{section.5}\protected@file@percent }
\citation{evans2018margins}
\citation{evans2018margins}
\citation{evans2018margins}
\citation{evans2017parameterization}
\citation{evans2017discrete-margins}
\citation{richardson2017nested}
\citation{evans2017smooth}
\citation{evans2017smooth}
\citation{evans2017smooth}
\@writefile{toc}{\contentsline {section}{\numberline {A}Canonical Latent Variable DAGs}{10}{appendix.A}\protected@file@percent }
\newlabel{sec:canonical}{{A}{10}{Canonical Latent Variable DAGs}{appendix.A}{}}
\@writefile{toc}{\contentsline {section}{\numberline {B}The Nested Markov Parameterization}{10}{appendix.B}\protected@file@percent }
\citation{evans2017smooth}
\citation{verma}
\citation{evans2017discrete-margins}
\citation{evans2017discrete-margins}
\citation{wolfe2021}
\newlabel{eq:partition}{{7}{11}{Partitions of CADMGs}{equation.B.7}{}}
\newlabel{eq:parameterization}{{8}{11}{Paramiterization of CADMGs}{equation.B.8}{}}
\@writefile{toc}{\contentsline {section}{\numberline {C}Non-Restrictive Latent Cardinalities \& Functional Models of Discrete DAGs}{11}{appendix.C}\protected@file@percent }
\newlabel{sec:functional-models}{{C}{11}{Non-Restrictive Latent Cardinalities \& Functional Models of Discrete DAGs}{appendix.C}{}}
\citation{evans2017discrete-margins}
\citation{wolfe2021}
\citation{wolfe2021}
\@writefile{toc}{\contentsline {subsection}{\numberline {C.1}Geared Graphs}{12}{subsection.C.1}\protected@file@percent }
\newlabel{eq:gearing}{{9}{12}{}{equation.C.9}{}}
\@writefile{toc}{\contentsline {subsection}{\numberline {C.2}Non-geared Graphs}{12}{subsection.C.2}\protected@file@percent }
\newlabel{sec:non-geared-graphs}{{C.2}{12}{Non-geared Graphs}{subsection.C.2}{}}
\gdef \@abspage@last{13}
