\relax 
\providecommand\hyper@newdestlabel[2]{}
\providecommand\HyperFirstAtBeginDocument{\AtBeginDocument}
\HyperFirstAtBeginDocument{\ifx\hyper@anchor\@undefined
\global\let\oldcontentsline\contentsline
\gdef\contentsline#1#2#3#4{\oldcontentsline{#1}{#2}{#3}}
\global\let\oldnewlabel\newlabel
\gdef\newlabel#1#2{\newlabelxx{#1}#2}
\gdef\newlabelxx#1#2#3#4#5#6{\oldnewlabel{#1}{{#2}{#3}}}
\AtEndDocument{\ifx\hyper@anchor\@undefined
\let\contentsline\oldcontentsline
\let\newlabel\oldnewlabel
\fi}
\fi}
\global\let\hyper@last\relax 
\gdef\HyperFirstAtBeginDocument#1{#1}
\providecommand\HyField@AuxAddToFields[1]{}
\providecommand\HyField@AuxAddToCoFields[2]{}
\providecommand\babel@aux[2]{}
\@nameuse{bbl@beforestart}
\citation{pearl2009causality}
\citation{richardson2013singlewi}
\citation{evans2018margins}
\babel@aux{english}{}
\@writefile{toc}{\contentsline {section}{\numberline {1}Problem Statement}{1}{section.1}\protected@file@percent }
\@writefile{toc}{\contentsline {section}{\numberline {2}Preliminaries}{1}{section.2}\protected@file@percent }
\citation{wolfe2021cardinalities}
\citation{wolfe2021cardinalities}
\citation{evans2019smooth}
\newlabel{prop:functional-model}{{1}{2}{}{proposition.1}{}}
\@writefile{toc}{\contentsline {section}{\numberline {3}Formulating the Polynomial Program}{2}{section.3}\protected@file@percent }
\newlabel{prop:polynomialization}{{2}{2}{}{proposition.2}{}}
\newlabel{cor:functional-polynomialization}{{1}{3}{}{corollary.1}{}}
\@writefile{loa}{\contentsline {algorithm}{\numberline {1}{\ignorespaces Constructing a Polynomial Program\relax }}{3}{algorithm.1}\protected@file@percent }
\providecommand*\caption@xref[2]{\@setref\relax\@undefined{#1}}
\newlabel{alg:polynomial-program}{{1}{3}{Constructing a Polynomial Program\relax }{algorithm.1}{}}
\@writefile{toc}{\contentsline {section}{\numberline {4}Methods for Reducing The Complexity of the Polynomial Program}{3}{section.4}\protected@file@percent }
\newlabel{prop:relevant-latents}{{3}{3}{}{proposition.3}{}}
\@writefile{toc}{\contentsline {subsection}{\numberline {4.1}Using the Nested Markov Parameterization for Single-World Marginal Distributions}{3}{subsection.4.1}\protected@file@percent }
\@writefile{loa}{\contentsline {algorithm}{\numberline {2}{\ignorespaces Constructing a Polynomial Program\relax }}{4}{algorithm.2}\protected@file@percent }
\newlabel{alg:polynomial-program}{{2}{4}{Constructing a Polynomial Program\relax }{algorithm.2}{}}
\citation{evans2019smooth}
\citation{evans2018margins}
\citation{wolfe2021cardinalities}
\citation{wolfe2021cardinalities}
\bibstyle{plain}
\bibdata{references}
\bibcite{evans2018margins}{1}
\bibcite{evans2019smooth}{2}
\bibcite{wolfe2021cardinalities}{3}
\@writefile{toc}{\contentsline {subsection}{\numberline {4.2}DAG parameterization for Non-geared graphs}{5}{subsection.4.2}\protected@file@percent }
\@writefile{toc}{\contentsline {section}{\numberline {5}Missing Data and Measurement Error}{5}{section.5}\protected@file@percent }
\bibcite{pearl2009causality}{4}
\bibcite{richardson2013singlewi}{5}
\gdef \@abspage@last{6}
